Complexity_Depth,Accuracy,Train_Error,Test_Error
1,0.8837209302325582,0.07529136173272984,0.13385306553911205
2,0.9534883720930233,0.03622324336900885,0.13365486257928122
3,0.9302325581395349,0.0012214983713355054,0.1422436575052854
4,0.9534883720930233,0.0,0.13365486257928122
