Complexity_Depth,Accuracy,Train_Error,Test_Error
1,0.92,0.0625649350649351,0.11670454545454545
2,0.9142857142857143,0.011363636363636354,0.15649350649350652
3,0.8857142857142857,0.0,0.16225649350649352
4,0.8971428571428571,0.0,0.13665584415584414
