Complexity_with_Degree,Accuracy,Train_Error,Test_Error
2,0.896551724137931,0.0979631274642729,0.1309175920514319
3,0.8103448275862069,0.11734809169822495,0.18809662965127605
4,0.8448275862068966,0.09626248694811974,0.17114747710890318
5,0.7586206896551724,0.09910857605934513,0.21400740307812197
6,0.7586206896551724,0.09226900119999377,0.2678745373076174
7,0.8448275862068966,0.108239048108841,0.31599454510033115
8,1.0,0.13560903579721661,0.3270504578219365
9,0.8448275862068966,0.13049347795595867,0.384180790960452
10,1.0,0.1327863231879315,0.34950321449444766
11,1.0,0.14530054389327848,0.32646600428599254
12,1.0,0.14416288746551967,0.3208162867718683
13,1.0,0.14018303801019216,0.35520163646990066
14,1.0,0.15383296710146963,0.33216442626144554
15,1.0,0.1601076098305983,0.3293395675043834
16,1.0,0.16294785481633864,0.3322131307227742
17,1.0,0.16009786962145653,0.3350379894798364
18,1.0,0.1720588464475509,0.3350379894798364
19,1.0,0.16578809980207895,0.33786284823689855
20,1.0,0.16579978805304907,0.34073641145528927
21,1.0,0.1640874592859258,0.34356127021235155
22,1.0,0.16921470537815386,0.3379115526982271
23,1.0,0.16522511571368462,0.3379115526982271
24,1.0,0.1977457259962286,0.3379115526982271
25,1.0,0.17148807019184317,0.34073641145528927
26,1.0,0.17148807019184312,0.3436099746736801
27,1.0,0.19888338242398743,0.34073641145528927
28,1.0,0.22627674661430333,0.3379115526982271
29,1.0,0.22627674661430333,0.34073641145528927
